<?xml version="1.0" encoding="UTF-8"?>
<svg width="18px" height="18px" viewBox="0 0 18 18" version="1.1" xmlns="http://www.w3.org/2000/svg" xmlns:xlink="http://www.w3.org/1999/xlink">
    <!-- Generator: Sketch 54.1 (76490) - https://sketchapp.com -->
    <title>iconfinder_calendar-70px_510869</title>
    <desc>Created with Sketch.</desc>
    <g id="Page-1" stroke="none" stroke-width="1" fill="none" fill-rule="evenodd">
        <g id="Artboard-Copy-1" transform="translate(-162.000000, -2096.000000)" fill="#B1B1B1" fill-rule="nonzero">
            <g id="Group-6-Copy-2" transform="translate(132.000000, 1819.000000)">
                <g id="iconfinder_calendar-70px_510869" transform="translate(30.000000, 275.000000)">
                    <path d="M16.2,3.8 L14.4,3.8 L14.4,2 L12.6,2 L12.6,3.8 L5.4,3.8 L5.4,2 L3.6,2 L3.6,3.8 L1.8,3.8 C0.80595,3.8 0,4.60595 0,5.6 L0,18.2 C0,19.19405 0.80595,20 1.8,20 L16.2,20 C17.19405,20 18,19.19405 18,18.2 L18,5.6 C18,4.60595 17.19405,3.8 16.2,3.8 Z M16.2,18.2 L1.8,18.2 L1.8,9.2 L16.2,9.2 L16.2,18.2 Z M16.2,7.4 L1.8,7.4 L1.8,5.6 L16.2,5.6 L16.2,7.4 Z" id="Shape"></path>
                    <rect id="Rectangle" x="9" y="11" width="2" height="2"></rect>
                    <rect id="Rectangle" x="13" y="11" width="2" height="2"></rect>
                    <rect id="Rectangle" x="9" y="15" width="2" height="2"></rect>
                    <rect id="Rectangle" x="5" y="15" width="2" height="2"></rect>
                </g>
            </g>
        </g>
    </g>
</svg>