<?xml version="1.0" encoding="UTF-8"?>
<svg width="18px" height="14px" viewBox="0 0 18 14" version="1.1" xmlns="http://www.w3.org/2000/svg" xmlns:xlink="http://www.w3.org/1999/xlink">
    <!-- Generator: Sketch 54.1 (76490) - https://sketchapp.com -->
    <title>iconfinder_icon-arrow-right-c_211621</title>
    <desc>Created with Sketch.</desc>
    <g id="Page-1" stroke="none" stroke-width="1" fill="none" fill-rule="evenodd">
        <g id="Artboard-Copy-3" transform="translate(-1142.000000, -1177.000000)" fill="#FFFFFF" fill-rule="nonzero">
            <g id="Group-3" transform="translate(984.000000, 1159.000000)">
                <g id="iconfinder_icon-arrow-right-c_211621" transform="translate(158.000000, 18.000000)">
                    <path d="M12.4107955,0.479102026 L17.5397727,5.84504472 C17.8465909,6.14144917 18,6.54517248 18,6.98977916 C18,7.43438584 17.8465909,7.83299872 17.5397727,8.1345136 L12.4107955,13.520898 C11.8022727,14.1597007 10.8102273,14.1597007 10.2017045,13.520898 C9.59318182,12.8820953 9.59318182,11.8497901 10.2017045,11.2109874 L12.6664773,8.63533492 L1.56988636,8.63533492 C0.700568182,8.63533492 0,7.90454462 0,7 C0,6.09545538 0.700568182,5.36466508 1.56477273,5.36466508 L12.6613636,5.36466508 L10.1965909,2.78901259 C9.58806818,2.15020989 9.58806818,1.11790473 10.1965909,0.479102026 C10.8102273,-0.159700675 11.7971591,-0.159700675 12.4107955,0.479102026 Z" id="Path"></path>
                </g>
            </g>
        </g>
    </g>
</svg>